%YAML 1.1
%TAG !u! tag:unity3d.com,2011:
--- !u!74 &7400000
AnimationClip:
  m_ObjectHideFlags: 0
  m_CorrespondingSourceObject: {fileID: 0}
  m_PrefabInternal: {fileID: 0}
  m_Name: BombayWalk
  serializedVersion: 6
  m_Legacy: 0
  m_Compressed: 0
  m_UseHighQualityCurve: 1
  m_RotationCurves: []
  m_CompressedRotationCurves: []
  m_EulerCurves: []
  m_PositionCurves: []
  m_ScaleCurves: []
  m_FloatCurves: []
  m_PPtrCurves:
  - curve:
    - time: 0
      value: {fileID: 21300000, guid: 023601764032ce042aac3b993863c0eb, type: 3}
    - time: 0.016666668
      value: {fileID: 21300000, guid: d4710384a75af0d429d33634e394fe4d, type: 3}
    - time: 0.033333335
      value: {fileID: 21300000, guid: af714eb9aa27a8a4daedb4ba2338c192, type: 3}
    - time: 0.05
      value: {fileID: 21300000, guid: 0c5f19f93b1f4c94c910ce00c88573e4, type: 3}
    - time: 0.06666667
      value: {fileID: 21300000, guid: 305d1ffc1b486cd438700c022a7dfdc1, type: 3}
    - time: 0.083333336
      value: {fileID: 21300000, guid: 389c493e89da2f04abbc72f31cfadcea, type: 3}
    - time: 0.1
      value: {fileID: 21300000, guid: bf514380e4d5ad64cb37f15b821c22fe, type: 3}
    - time: 0.11666667
      value: {fileID: 21300000, guid: 33bb65a44253c2a4a9d0efa3f5dd2bc3, type: 3}
    - time: 0.13333334
      value: {fileID: 21300000, guid: 3bc8642d4d42c3841a4d7cf7ae2e4b1b, type: 3}
    - time: 0.15
      value: {fileID: 21300000, guid: 443d8d814f732e34eadde3a5bb818e6c, type: 3}
    - time: 0.16666667
      value: {fileID: 21300000, guid: 0a81b0f2c3a70bb4e907d99079083330, type: 3}
    - time: 0.18333334
      value: {fileID: 21300000, guid: cf79cd5011ff41f4a9690ddc288132d3, type: 3}
    - time: 0.2
      value: {fileID: 21300000, guid: 390e705036bee2f46ac17e9b363d993c, type: 3}
    - time: 0.21666667
      value: {fileID: 21300000, guid: 4afd39daacca7e248944bd547ed9b6b2, type: 3}
    - time: 0.23333333
      value: {fileID: 21300000, guid: ab45e550c98302648b07c4cc04d8768e, type: 3}
    - time: 0.25
      value: {fileID: 21300000, guid: 7fc554b37acd64745b638e7c10752d43, type: 3}
    - time: 0.26666668
      value: {fileID: 21300000, guid: e8501e7b5f2c3a243b79934a90ea0eba, type: 3}
    - time: 0.28333336
      value: {fileID: 21300000, guid: 536cbe4d1beedcf4d8c4ea23d1077863, type: 3}
    - time: 0.30000004
      value: {fileID: 21300000, guid: 12e712102136fb14085b9fa13c119b0d, type: 3}
    - time: 0.31666672
      value: {fileID: 21300000, guid: 1ceb5bff7a3dadf44981f73d952c8866, type: 3}
    - time: 0.3333334
      value: {fileID: 21300000, guid: 96d31eb7e88eccc44a0806ed1641de62, type: 3}
    - time: 0.35000008
      value: {fileID: 21300000, guid: 99e4dc92a2a8e2b4aab5d6a71905863f, type: 3}
    - time: 0.36666676
      value: {fileID: 21300000, guid: 3b6c6ea155f8cf24a8aa62fda663d074, type: 3}
    - time: 0.38333344
      value: {fileID: 21300000, guid: 4baff8eeb0f36344a8ecd12274bba052, type: 3}
    - time: 0.40000013
      value: {fileID: 21300000, guid: c28f631323052ea4b878a1db9e62df27, type: 3}
    - time: 0.4166668
      value: {fileID: 21300000, guid: d0998fdd5b6e780419c7f45ec230b8d1, type: 3}
    - time: 0.4333335
      value: {fileID: 21300000, guid: 1506c0a5b299fc648ad148edbfe0838a, type: 3}
    - time: 0.45000017
      value: {fileID: 21300000, guid: def05405ae3ea0a4685aa87549e1b370, type: 3}
    - time: 0.46666685
      value: {fileID: 21300000, guid: 9552a6407bcc0964183cf0ca9d3f9be8, type: 3}
    - time: 0.48333353
      value: {fileID: 21300000, guid: d5870425548e69947aeeea0204580e7d, type: 3}
    - time: 0.5000002
      value: {fileID: 21300000, guid: eb4aff3312cc9d5468d57c5a825d307f, type: 3}
    - time: 0.5166668
      value: {fileID: 21300000, guid: 7948a76fa7ffa294cbb976c6be5c61e5, type: 3}
    - time: 0.5333335
      value: {fileID: 21300000, guid: 1499d5e1697cf134b923eb2f04084998, type: 3}
    - time: 0.55000013
      value: {fileID: 21300000, guid: e9a471c130b218a458e3ce041a0557c9, type: 3}
    - time: 0.5666668
      value: {fileID: 21300000, guid: 53e43582cf9f05f4982816272990da94, type: 3}
    - time: 0.58333343
      value: {fileID: 21300000, guid: bc654916ea53484499b26caca936d939, type: 3}
    - time: 0.6000001
      value: {fileID: 21300000, guid: 4a1c92e983904234d996a16afac5e815, type: 3}
    - time: 0.61666673
      value: {fileID: 21300000, guid: 3a05ec52064f8ca4d9d1397fbb482780, type: 3}
    - time: 0.6333334
      value: {fileID: 21300000, guid: dd1717123451eeb48b73fed172ee35f0, type: 3}
    - time: 0.65000004
      value: {fileID: 21300000, guid: efa596df218bbfe46a6636514c93967c, type: 3}
    - time: 0.6666667
      value: {fileID: 21300000, guid: 8f34941f475f8a64db1d472eee1f47ba, type: 3}
    - time: 0.68333334
      value: {fileID: 21300000, guid: 37a2c8aa9d9ef644aa0e4330dbb20cc4, type: 3}
    - time: 0.7
      value: {fileID: 21300000, guid: f5afe798a3665c14199a93d6ca9b6001, type: 3}
    - time: 0.71666664
      value: {fileID: 21300000, guid: 2b2e9b984544ccd4ca0c0dfa951da449, type: 3}
    - time: 0.7333333
      value: {fileID: 21300000, guid: c59854de18815304aba476375c7c4002, type: 3}
    - time: 0.74999994
      value: {fileID: 21300000, guid: f6e311a053b2dac4f9f2249e68517108, type: 3}
    - time: 0.7666666
      value: {fileID: 21300000, guid: cd253b0da6d5f2345a953f5abfd9b04a, type: 3}
    - time: 0.78333324
      value: {fileID: 21300000, guid: ebbfe401da7d35e4caf37f862da0bdce, type: 3}
    - time: 0.7999999
      value: {fileID: 21300000, guid: ab040a6c3170ac6418496d8fdaa73653, type: 3}
    - time: 0.81666654
      value: {fileID: 21300000, guid: 687805469c20c2448ba7bd8ee6bac820, type: 3}
    - time: 0.8333332
      value: {fileID: 21300000, guid: 78592aa896bd4e8448a035f2369894bc, type: 3}
    - time: 0.84999985
      value: {fileID: 21300000, guid: 58782ff0cb6336b47b0d7c485208ac53, type: 3}
    - time: 0.8666665
      value: {fileID: 21300000, guid: 7368f3d9f9262d444a5d3eb105ab335f, type: 3}
    - time: 0.88333315
      value: {fileID: 21300000, guid: d26b1da17dbb0ef4798f2363ed43efc5, type: 3}
    - time: 0.8999998
      value: {fileID: 21300000, guid: 5ef0ce868376453418ce538808c3de1e, type: 3}
    - time: 0.91666645
      value: {fileID: 21300000, guid: 34e93d58d5bbc4f4d96d745dd5ca4e4f, type: 3}
    - time: 0.9333331
      value: {fileID: 21300000, guid: a4eecf93b39c9384fb17fb03ab58ca48, type: 3}
    - time: 0.94999975
      value: {fileID: 21300000, guid: 1cf58c1b204832a42b08d1b4322bb4e6, type: 3}
    - time: 0.9666664
      value: {fileID: 21300000, guid: 60fca1aee60ef764692773adca91a7ba, type: 3}
    - time: 0.98333305
      value: {fileID: 21300000, guid: 63b0e1694323b334784622ff9efffee6, type: 3}
    - time: 0.9999997
      value: {fileID: 21300000, guid: 0fb663971d997a34d91c62c0c7605f48, type: 3}
    - time: 1.0166664
      value: {fileID: 21300000, guid: 74f5993241fb27441bfdf59b7ecb0d29, type: 3}
    attribute: m_Sprite
    path: 
    classID: 212
    script: {fileID: 0}
  m_SampleRate: 60
  m_WrapMode: 0
  m_Bounds:
    m_Center: {x: 0, y: 0, z: 0}
    m_Extent: {x: 0, y: 0, z: 0}
  m_ClipBindingConstant:
    genericBindings:
    - serializedVersion: 2
      path: 0
      attribute: 0
      script: {fileID: 0}
      typeID: 212
      customType: 23
      isPPtrCurve: 1
    pptrCurveMapping:
    - {fileID: 21300000, guid: 023601764032ce042aac3b993863c0eb, type: 3}
    - {fileID: 21300000, guid: d4710384a75af0d429d33634e394fe4d, type: 3}
    - {fileID: 21300000, guid: af714eb9aa27a8a4daedb4ba2338c192, type: 3}
    - {fileID: 21300000, guid: 0c5f19f93b1f4c94c910ce00c88573e4, type: 3}
    - {fileID: 21300000, guid: 305d1ffc1b486cd438700c022a7dfdc1, type: 3}
    - {fileID: 21300000, guid: 389c493e89da2f04abbc72f31cfadcea, type: 3}
    - {fileID: 21300000, guid: bf514380e4d5ad64cb37f15b821c22fe, type: 3}
    - {fileID: 21300000, guid: 33bb65a44253c2a4a9d0efa3f5dd2bc3, type: 3}
    - {fileID: 21300000, guid: 3bc8642d4d42c3841a4d7cf7ae2e4b1b, type: 3}
    - {fileID: 21300000, guid: 443d8d814f732e34eadde3a5bb818e6c, type: 3}
    - {fileID: 21300000, guid: 0a81b0f2c3a70bb4e907d99079083330, type: 3}
    - {fileID: 21300000, guid: cf79cd5011ff41f4a9690ddc288132d3, type: 3}
    - {fileID: 21300000, guid: 390e705036bee2f46ac17e9b363d993c, type: 3}
    - {fileID: 21300000, guid: 4afd39daacca7e248944bd547ed9b6b2, type: 3}
    - {fileID: 21300000, guid: ab45e550c98302648b07c4cc04d8768e, type: 3}
    - {fileID: 21300000, guid: 7fc554b37acd64745b638e7c10752d43, type: 3}
    - {fileID: 21300000, guid: e8501e7b5f2c3a243b79934a90ea0eba, type: 3}
    - {fileID: 21300000, guid: 536cbe4d1beedcf4d8c4ea23d1077863, type: 3}
    - {fileID: 21300000, guid: 12e712102136fb14085b9fa13c119b0d, type: 3}
    - {fileID: 21300000, guid: 1ceb5bff7a3dadf44981f73d952c8866, type: 3}
    - {fileID: 21300000, guid: 96d31eb7e88eccc44a0806ed1641de62, type: 3}
    - {fileID: 21300000, guid: 99e4dc92a2a8e2b4aab5d6a71905863f, type: 3}
    - {fileID: 21300000, guid: 3b6c6ea155f8cf24a8aa62fda663d074, type: 3}
    - {fileID: 21300000, guid: 4baff8eeb0f36344a8ecd12274bba052, type: 3}
    - {fileID: 21300000, guid: c28f631323052ea4b878a1db9e62df27, type: 3}
    - {fileID: 21300000, guid: d0998fdd5b6e780419c7f45ec230b8d1, type: 3}
    - {fileID: 21300000, guid: 1506c0a5b299fc648ad148edbfe0838a, type: 3}
    - {fileID: 21300000, guid: def05405ae3ea0a4685aa87549e1b370, type: 3}
    - {fileID: 21300000, guid: 9552a6407bcc0964183cf0ca9d3f9be8, type: 3}
    - {fileID: 21300000, guid: d5870425548e69947aeeea0204580e7d, type: 3}
    - {fileID: 21300000, guid: eb4aff3312cc9d5468d57c5a825d307f, type: 3}
    - {fileID: 21300000, guid: 7948a76fa7ffa294cbb976c6be5c61e5, type: 3}
    - {fileID: 21300000, guid: 1499d5e1697cf134b923eb2f04084998, type: 3}
    - {fileID: 21300000, guid: e9a471c130b218a458e3ce041a0557c9, type: 3}
    - {fileID: 21300000, guid: 53e43582cf9f05f4982816272990da94, type: 3}
    - {fileID: 21300000, guid: bc654916ea53484499b26caca936d939, type: 3}
    - {fileID: 21300000, guid: 4a1c92e983904234d996a16afac5e815, type: 3}
    - {fileID: 21300000, guid: 3a05ec52064f8ca4d9d1397fbb482780, type: 3}
    - {fileID: 21300000, guid: dd1717123451eeb48b73fed172ee35f0, type: 3}
    - {fileID: 21300000, guid: efa596df218bbfe46a6636514c93967c, type: 3}
    - {fileID: 21300000, guid: 8f34941f475f8a64db1d472eee1f47ba, type: 3}
    - {fileID: 21300000, guid: 37a2c8aa9d9ef644aa0e4330dbb20cc4, type: 3}
    - {fileID: 21300000, guid: f5afe798a3665c14199a93d6ca9b6001, type: 3}
    - {fileID: 21300000, guid: 2b2e9b984544ccd4ca0c0dfa951da449, type: 3}
    - {fileID: 21300000, guid: c59854de18815304aba476375c7c4002, type: 3}
    - {fileID: 21300000, guid: f6e311a053b2dac4f9f2249e68517108, type: 3}
    - {fileID: 21300000, guid: cd253b0da6d5f2345a953f5abfd9b04a, type: 3}
    - {fileID: 21300000, guid: ebbfe401da7d35e4caf37f862da0bdce, type: 3}
    - {fileID: 21300000, guid: ab040a6c3170ac6418496d8fdaa73653, type: 3}
    - {fileID: 21300000, guid: 687805469c20c2448ba7bd8ee6bac820, type: 3}
    - {fileID: 21300000, guid: 78592aa896bd4e8448a035f2369894bc, type: 3}
    - {fileID: 21300000, guid: 58782ff0cb6336b47b0d7c485208ac53, type: 3}
    - {fileID: 21300000, guid: 7368f3d9f9262d444a5d3eb105ab335f, type: 3}
    - {fileID: 21300000, guid: d26b1da17dbb0ef4798f2363ed43efc5, type: 3}
    - {fileID: 21300000, guid: 5ef0ce868376453418ce538808c3de1e, type: 3}
    - {fileID: 21300000, guid: 34e93d58d5bbc4f4d96d745dd5ca4e4f, type: 3}
    - {fileID: 21300000, guid: a4eecf93b39c9384fb17fb03ab58ca48, type: 3}
    - {fileID: 21300000, guid: 1cf58c1b204832a42b08d1b4322bb4e6, type: 3}
    - {fileID: 21300000, guid: 60fca1aee60ef764692773adca91a7ba, type: 3}
    - {fileID: 21300000, guid: 63b0e1694323b334784622ff9efffee6, type: 3}
    - {fileID: 21300000, guid: 0fb663971d997a34d91c62c0c7605f48, type: 3}
    - {fileID: 21300000, guid: 74f5993241fb27441bfdf59b7ecb0d29, type: 3}
  m_AnimationClipSettings:
    serializedVersion: 2
    m_AdditiveReferencePoseClip: {fileID: 0}
    m_AdditiveReferencePoseTime: 0
    m_StartTime: 0
    m_StopTime: 1.0333331
    m_OrientationOffsetY: 0
    m_Level: 0
    m_CycleOffset: 0
    m_HasAdditiveReferencePose: 0
    m_LoopTime: 1
    m_LoopBlend: 0
    m_LoopBlendOrientation: 0
    m_LoopBlendPositionY: 0
    m_LoopBlendPositionXZ: 0
    m_KeepOriginalOrientation: 0
    m_KeepOriginalPositionY: 1
    m_KeepOriginalPositionXZ: 0
    m_HeightFromFeet: 0
    m_Mirror: 0
  m_EditorCurves: []
  m_EulerEditorCurves: []
  m_HasGenericRootTransform: 0
  m_HasMotionFloatCurves: 0
  m_GenerateMotionCurves: 0
  m_Events: []
