%YAML 1.1
%TAG !u! tag:unity3d.com,2011:
--- !u!74 &7400000
AnimationClip:
  m_ObjectHideFlags: 0
  m_PrefabParentObject: {fileID: 0}
  m_PrefabInternal: {fileID: 0}
  m_Name: PastorPurrsianSleep
  serializedVersion: 6
  m_Legacy: 0
  m_Compressed: 0
  m_UseHighQualityCurve: 1
  m_RotationCurves: []
  m_CompressedRotationCurves: []
  m_EulerCurves: []
  m_PositionCurves: []
  m_ScaleCurves: []
  m_FloatCurves: []
  m_PPtrCurves:
  - curve:
    - time: 0
      value: {fileID: 21300000, guid: db57efc5dc71a3f48ae760d6f186c23f, type: 3}
    - time: 0.016666668
      value: {fileID: 21300000, guid: 9dbdc3afc3eac454fa525ffb9bad2057, type: 3}
    - time: 0.033333335
      value: {fileID: 21300000, guid: d763e243ee7cd3644b055936f4902ec2, type: 3}
    - time: 0.05
      value: {fileID: 21300000, guid: 0f56076a0e4e6304ab08a58850d1fb42, type: 3}
    - time: 0.06666667
      value: {fileID: 21300000, guid: dc285134c56090a4da60b4e02ebe7dc3, type: 3}
    - time: 0.083333336
      value: {fileID: 21300000, guid: d875b5a424c61374b84cda180907e88f, type: 3}
    - time: 0.1
      value: {fileID: 21300000, guid: 5c7acb9a032270d43a4ff04fd93a720d, type: 3}
    - time: 0.11666667
      value: {fileID: 21300000, guid: e71fae4614469b8498b9ea19b1162478, type: 3}
    - time: 0.13333334
      value: {fileID: 21300000, guid: 87e90f7bbf3ff874da612020e7e8057d, type: 3}
    - time: 0.15
      value: {fileID: 21300000, guid: 6a058b3e6523b6c45a42ac22bb1b4cc7, type: 3}
    - time: 0.16666667
      value: {fileID: 21300000, guid: 94dc45991bc102941b11150c8a78ae17, type: 3}
    - time: 0.18333334
      value: {fileID: 21300000, guid: 672cf0af80cd1654eae0e19888d4cc42, type: 3}
    - time: 0.2
      value: {fileID: 21300000, guid: 4053485c59c51ff4ba80ac440e7b278d, type: 3}
    - time: 0.21666667
      value: {fileID: 21300000, guid: aeccd3c7c3b2ed5478f1fb351e41b8ad, type: 3}
    - time: 0.23333333
      value: {fileID: 21300000, guid: 4894aebb182745f4482afacd151c4c4d, type: 3}
    - time: 0.25
      value: {fileID: 21300000, guid: 7e6042095b9554045a49dadf5547b274, type: 3}
    - time: 0.26666668
      value: {fileID: 21300000, guid: 04422bb9f9e9bdb47a11f566918562fc, type: 3}
    - time: 0.28333336
      value: {fileID: 21300000, guid: d5ac01f6a4965c04dba8051cf6108fa8, type: 3}
    - time: 0.30000004
      value: {fileID: 21300000, guid: b59b2103089143f42a4633fa54d8e8b1, type: 3}
    - time: 0.31666672
      value: {fileID: 21300000, guid: 2e3c9766f48c12b428b3fa59cfff7b14, type: 3}
    - time: 0.3333334
      value: {fileID: 21300000, guid: 1258c7bc8d9ae934080dd78fa377dc90, type: 3}
    - time: 0.35000008
      value: {fileID: 21300000, guid: afc260c94dbf9794db0f15f9ef3d9cf3, type: 3}
    - time: 0.36666676
      value: {fileID: 21300000, guid: 4e5ab4882ef6ef543ad402761596b795, type: 3}
    - time: 0.38333344
      value: {fileID: 21300000, guid: 59edcd3d40a363544aadbd6e61a2d0dd, type: 3}
    - time: 0.40000013
      value: {fileID: 21300000, guid: 98519cca8921c1040b8fb80d8416edd3, type: 3}
    - time: 0.4166668
      value: {fileID: 21300000, guid: 01e42f22bfca2ae4384c42d0b199f5c7, type: 3}
    - time: 0.4333335
      value: {fileID: 21300000, guid: eadcfd5695d6a1744ac1c9455f3c220c, type: 3}
    - time: 0.45000017
      value: {fileID: 21300000, guid: afe8a8619ed890f47b2e7c0b540749c5, type: 3}
    - time: 0.46666685
      value: {fileID: 21300000, guid: e6240f57b8555ff408384beda81dbd17, type: 3}
    - time: 0.48333353
      value: {fileID: 21300000, guid: a25b18bfc7872074980145b8bdaf4954, type: 3}
    - time: 0.5000002
      value: {fileID: 21300000, guid: 0de4f189624d7164bba62b2ba4c2ff3d, type: 3}
    - time: 0.5166668
      value: {fileID: 21300000, guid: 54840c005694892489884ab499e356fa, type: 3}
    - time: 0.5333335
      value: {fileID: 21300000, guid: 287edda5f2cc03c49b333618dd339efe, type: 3}
    - time: 0.55000013
      value: {fileID: 21300000, guid: cc79cc1f5b313104489b66df87dcdcf7, type: 3}
    - time: 0.5666668
      value: {fileID: 21300000, guid: c656778290d493e42b7041b371e14189, type: 3}
    - time: 0.58333343
      value: {fileID: 21300000, guid: e810eb008cc9a224b97c04c5c3c474a4, type: 3}
    - time: 0.6000001
      value: {fileID: 21300000, guid: 8d9a046c9550619468f5cf67753fd8fc, type: 3}
    - time: 0.61666673
      value: {fileID: 21300000, guid: 150330ad5cba4fa4dad160aefc2b3c70, type: 3}
    - time: 0.6333334
      value: {fileID: 21300000, guid: 21b9018d7cdc7f740bc47657672029ec, type: 3}
    - time: 0.65000004
      value: {fileID: 21300000, guid: cf9274668acd1f448abd232cb27e6da5, type: 3}
    - time: 0.6666667
      value: {fileID: 21300000, guid: 367aa39d6d9d0664c8820091116933d2, type: 3}
    - time: 0.68333334
      value: {fileID: 21300000, guid: a9ae1619b7b3ed2478af380a6962ba7b, type: 3}
    - time: 0.7
      value: {fileID: 21300000, guid: 00f9e73cce0ea2444983197c273e2a5a, type: 3}
    - time: 0.71666664
      value: {fileID: 21300000, guid: 4d38b6956c3302a42979b3e8df5eefcb, type: 3}
    - time: 0.7333333
      value: {fileID: 21300000, guid: 2fc793c8f3e27a64ab726625f98dac2f, type: 3}
    - time: 0.74999994
      value: {fileID: 21300000, guid: dcb3a9cd2d59ba144a39728e5e5d486e, type: 3}
    - time: 0.7666666
      value: {fileID: 21300000, guid: a4a37a0d7768dbb4288cc09cdcf491ff, type: 3}
    - time: 0.78333324
      value: {fileID: 21300000, guid: efc13743d700abf4f8f5512d991978c7, type: 3}
    - time: 0.7999999
      value: {fileID: 21300000, guid: a463d132f2c0a8a41af1bb49c6767c21, type: 3}
    - time: 0.81666654
      value: {fileID: 21300000, guid: 4facb8c356d0b224aa409a8b75e7f617, type: 3}
    - time: 0.8333332
      value: {fileID: 21300000, guid: 0e556fe7947909c45b3f210b71fe0822, type: 3}
    - time: 0.84999985
      value: {fileID: 21300000, guid: a4c351440a759d749b2c97e483955892, type: 3}
    - time: 0.8666665
      value: {fileID: 21300000, guid: 83d5ac2663f8f8d44acd93430360c26c, type: 3}
    - time: 0.88333315
      value: {fileID: 21300000, guid: 9a29e9cfe485275429c945973b0ecac9, type: 3}
    - time: 0.8999998
      value: {fileID: 21300000, guid: f5be61916621a664693a1270432bf62f, type: 3}
    - time: 0.91666645
      value: {fileID: 21300000, guid: e59953bec37b4b14ca3d8a686958dcee, type: 3}
    - time: 0.9333331
      value: {fileID: 21300000, guid: b0ee6604c53e3754caa0dc626af76a43, type: 3}
    - time: 0.94999975
      value: {fileID: 21300000, guid: d9c1c301e69e42a49a9d59f0273c257d, type: 3}
    - time: 0.9666664
      value: {fileID: 21300000, guid: 01aeb645221b38846a5f17fe282ab3d5, type: 3}
    - time: 0.98333305
      value: {fileID: 21300000, guid: 232dd41fbd5c01c499b0a731d8289c54, type: 3}
    - time: 0.9999997
      value: {fileID: 21300000, guid: 799159601f225e441acc379988d60340, type: 3}
    - time: 1.0166664
      value: {fileID: 21300000, guid: d43c308b052699a4e9fc9adaffa43a77, type: 3}
    attribute: m_Sprite
    path: 
    classID: 212
    script: {fileID: 0}
  m_SampleRate: 60
  m_WrapMode: 0
  m_Bounds:
    m_Center: {x: 0, y: 0, z: 0}
    m_Extent: {x: 0, y: 0, z: 0}
  m_ClipBindingConstant:
    genericBindings:
    - serializedVersion: 2
      path: 0
      attribute: 0
      script: {fileID: 0}
      typeID: 212
      customType: 23
      isPPtrCurve: 1
    pptrCurveMapping:
    - {fileID: 21300000, guid: db57efc5dc71a3f48ae760d6f186c23f, type: 3}
    - {fileID: 21300000, guid: 9dbdc3afc3eac454fa525ffb9bad2057, type: 3}
    - {fileID: 21300000, guid: d763e243ee7cd3644b055936f4902ec2, type: 3}
    - {fileID: 21300000, guid: 0f56076a0e4e6304ab08a58850d1fb42, type: 3}
    - {fileID: 21300000, guid: dc285134c56090a4da60b4e02ebe7dc3, type: 3}
    - {fileID: 21300000, guid: d875b5a424c61374b84cda180907e88f, type: 3}
    - {fileID: 21300000, guid: 5c7acb9a032270d43a4ff04fd93a720d, type: 3}
    - {fileID: 21300000, guid: e71fae4614469b8498b9ea19b1162478, type: 3}
    - {fileID: 21300000, guid: 87e90f7bbf3ff874da612020e7e8057d, type: 3}
    - {fileID: 21300000, guid: 6a058b3e6523b6c45a42ac22bb1b4cc7, type: 3}
    - {fileID: 21300000, guid: 94dc45991bc102941b11150c8a78ae17, type: 3}
    - {fileID: 21300000, guid: 672cf0af80cd1654eae0e19888d4cc42, type: 3}
    - {fileID: 21300000, guid: 4053485c59c51ff4ba80ac440e7b278d, type: 3}
    - {fileID: 21300000, guid: aeccd3c7c3b2ed5478f1fb351e41b8ad, type: 3}
    - {fileID: 21300000, guid: 4894aebb182745f4482afacd151c4c4d, type: 3}
    - {fileID: 21300000, guid: 7e6042095b9554045a49dadf5547b274, type: 3}
    - {fileID: 21300000, guid: 04422bb9f9e9bdb47a11f566918562fc, type: 3}
    - {fileID: 21300000, guid: d5ac01f6a4965c04dba8051cf6108fa8, type: 3}
    - {fileID: 21300000, guid: b59b2103089143f42a4633fa54d8e8b1, type: 3}
    - {fileID: 21300000, guid: 2e3c9766f48c12b428b3fa59cfff7b14, type: 3}
    - {fileID: 21300000, guid: 1258c7bc8d9ae934080dd78fa377dc90, type: 3}
    - {fileID: 21300000, guid: afc260c94dbf9794db0f15f9ef3d9cf3, type: 3}
    - {fileID: 21300000, guid: 4e5ab4882ef6ef543ad402761596b795, type: 3}
    - {fileID: 21300000, guid: 59edcd3d40a363544aadbd6e61a2d0dd, type: 3}
    - {fileID: 21300000, guid: 98519cca8921c1040b8fb80d8416edd3, type: 3}
    - {fileID: 21300000, guid: 01e42f22bfca2ae4384c42d0b199f5c7, type: 3}
    - {fileID: 21300000, guid: eadcfd5695d6a1744ac1c9455f3c220c, type: 3}
    - {fileID: 21300000, guid: afe8a8619ed890f47b2e7c0b540749c5, type: 3}
    - {fileID: 21300000, guid: e6240f57b8555ff408384beda81dbd17, type: 3}
    - {fileID: 21300000, guid: a25b18bfc7872074980145b8bdaf4954, type: 3}
    - {fileID: 21300000, guid: 0de4f189624d7164bba62b2ba4c2ff3d, type: 3}
    - {fileID: 21300000, guid: 54840c005694892489884ab499e356fa, type: 3}
    - {fileID: 21300000, guid: 287edda5f2cc03c49b333618dd339efe, type: 3}
    - {fileID: 21300000, guid: cc79cc1f5b313104489b66df87dcdcf7, type: 3}
    - {fileID: 21300000, guid: c656778290d493e42b7041b371e14189, type: 3}
    - {fileID: 21300000, guid: e810eb008cc9a224b97c04c5c3c474a4, type: 3}
    - {fileID: 21300000, guid: 8d9a046c9550619468f5cf67753fd8fc, type: 3}
    - {fileID: 21300000, guid: 150330ad5cba4fa4dad160aefc2b3c70, type: 3}
    - {fileID: 21300000, guid: 21b9018d7cdc7f740bc47657672029ec, type: 3}
    - {fileID: 21300000, guid: cf9274668acd1f448abd232cb27e6da5, type: 3}
    - {fileID: 21300000, guid: 367aa39d6d9d0664c8820091116933d2, type: 3}
    - {fileID: 21300000, guid: a9ae1619b7b3ed2478af380a6962ba7b, type: 3}
    - {fileID: 21300000, guid: 00f9e73cce0ea2444983197c273e2a5a, type: 3}
    - {fileID: 21300000, guid: 4d38b6956c3302a42979b3e8df5eefcb, type: 3}
    - {fileID: 21300000, guid: 2fc793c8f3e27a64ab726625f98dac2f, type: 3}
    - {fileID: 21300000, guid: dcb3a9cd2d59ba144a39728e5e5d486e, type: 3}
    - {fileID: 21300000, guid: a4a37a0d7768dbb4288cc09cdcf491ff, type: 3}
    - {fileID: 21300000, guid: efc13743d700abf4f8f5512d991978c7, type: 3}
    - {fileID: 21300000, guid: a463d132f2c0a8a41af1bb49c6767c21, type: 3}
    - {fileID: 21300000, guid: 4facb8c356d0b224aa409a8b75e7f617, type: 3}
    - {fileID: 21300000, guid: 0e556fe7947909c45b3f210b71fe0822, type: 3}
    - {fileID: 21300000, guid: a4c351440a759d749b2c97e483955892, type: 3}
    - {fileID: 21300000, guid: 83d5ac2663f8f8d44acd93430360c26c, type: 3}
    - {fileID: 21300000, guid: 9a29e9cfe485275429c945973b0ecac9, type: 3}
    - {fileID: 21300000, guid: f5be61916621a664693a1270432bf62f, type: 3}
    - {fileID: 21300000, guid: e59953bec37b4b14ca3d8a686958dcee, type: 3}
    - {fileID: 21300000, guid: b0ee6604c53e3754caa0dc626af76a43, type: 3}
    - {fileID: 21300000, guid: d9c1c301e69e42a49a9d59f0273c257d, type: 3}
    - {fileID: 21300000, guid: 01aeb645221b38846a5f17fe282ab3d5, type: 3}
    - {fileID: 21300000, guid: 232dd41fbd5c01c499b0a731d8289c54, type: 3}
    - {fileID: 21300000, guid: 799159601f225e441acc379988d60340, type: 3}
    - {fileID: 21300000, guid: d43c308b052699a4e9fc9adaffa43a77, type: 3}
  m_AnimationClipSettings:
    serializedVersion: 2
    m_AdditiveReferencePoseClip: {fileID: 0}
    m_AdditiveReferencePoseTime: 0
    m_StartTime: 0
    m_StopTime: 1.0333331
    m_OrientationOffsetY: 0
    m_Level: 0
    m_CycleOffset: 0
    m_HasAdditiveReferencePose: 0
    m_LoopTime: 1
    m_LoopBlend: 0
    m_LoopBlendOrientation: 0
    m_LoopBlendPositionY: 0
    m_LoopBlendPositionXZ: 0
    m_KeepOriginalOrientation: 0
    m_KeepOriginalPositionY: 1
    m_KeepOriginalPositionXZ: 0
    m_HeightFromFeet: 0
    m_Mirror: 0
  m_EditorCurves: []
  m_EulerEditorCurves: []
  m_HasGenericRootTransform: 0
  m_HasMotionFloatCurves: 0
  m_GenerateMotionCurves: 0
  m_Events: []
