%YAML 1.1
%TAG !u! tag:unity3d.com,2011:
--- !u!74 &7400000
AnimationClip:
  m_ObjectHideFlags: 0
  m_CorrespondingSourceObject: {fileID: 0}
  m_PrefabInternal: {fileID: 0}
  m_Name: VanTurcoClimbing
  serializedVersion: 6
  m_Legacy: 0
  m_Compressed: 0
  m_UseHighQualityCurve: 1
  m_RotationCurves: []
  m_CompressedRotationCurves: []
  m_EulerCurves: []
  m_PositionCurves: []
  m_ScaleCurves: []
  m_FloatCurves: []
  m_PPtrCurves:
  - curve:
    - time: 0
      value: {fileID: 21300000, guid: 27929b85a46c24a4a82530f8b25fdd7a, type: 3}
    - time: 0.016666668
      value: {fileID: 21300000, guid: 3410398a53394fb468ee898ec042b998, type: 3}
    - time: 0.033333335
      value: {fileID: 21300000, guid: 343f47714a314904195aed3a3e8738d2, type: 3}
    - time: 0.05
      value: {fileID: 21300000, guid: 887ecdc65252fe143b5b974f72e19e29, type: 3}
    - time: 0.06666667
      value: {fileID: 21300000, guid: 79c835fbff308af49a577a907b463cdc, type: 3}
    - time: 0.083333336
      value: {fileID: 21300000, guid: 77d96a051cdd5404198f8402bdd20486, type: 3}
    - time: 0.1
      value: {fileID: 21300000, guid: bae4cbd198885614fb57d108c5e64cf6, type: 3}
    - time: 0.11666667
      value: {fileID: 21300000, guid: e8079457802884946ab4e31ebd1581e1, type: 3}
    - time: 0.13333334
      value: {fileID: 21300000, guid: d038646c67f00264db4bbc5306590cb8, type: 3}
    - time: 0.15
      value: {fileID: 21300000, guid: dd770a10bc4ee8a4d93db5b6a3441aca, type: 3}
    - time: 0.16666667
      value: {fileID: 21300000, guid: 8c6e5d0a06fc0aa4e83c906aaf781e28, type: 3}
    - time: 0.18333334
      value: {fileID: 21300000, guid: a99e601e88dac9e469ab205be3deaf91, type: 3}
    - time: 0.2
      value: {fileID: 21300000, guid: 5f88b333ef6139a47a716fa429ce4b77, type: 3}
    - time: 0.21666667
      value: {fileID: 21300000, guid: 40f486c06f046ae4eb85531a7c457f9e, type: 3}
    - time: 0.23333333
      value: {fileID: 21300000, guid: 7229b5fd100bad44baa1b9e89ad4be0c, type: 3}
    - time: 0.25
      value: {fileID: 21300000, guid: e7574351d6b0cb8459a2ef0a3388396d, type: 3}
    - time: 0.26666668
      value: {fileID: 21300000, guid: a4b26c81d593d004fa25c6b27210ce02, type: 3}
    - time: 0.28333336
      value: {fileID: 21300000, guid: 121dd6acb0c4e7649b10f1d746041da3, type: 3}
    - time: 0.30000004
      value: {fileID: 21300000, guid: f551af0726fd1e546bb513ae49b54df0, type: 3}
    - time: 0.31666672
      value: {fileID: 21300000, guid: 101e5812730455f41883c031bed8ded8, type: 3}
    - time: 0.3333334
      value: {fileID: 21300000, guid: 46d9c36338dbacd4192d7444e6c67f25, type: 3}
    - time: 0.35000008
      value: {fileID: 21300000, guid: dacd274571633ff46ac23bcab73ce75a, type: 3}
    - time: 0.36666676
      value: {fileID: 21300000, guid: 5079ebaf1c6ca8e43acb5ce89a03e3ac, type: 3}
    - time: 0.38333344
      value: {fileID: 21300000, guid: bb6395d1983c2ec4a8bdd4139a8628fa, type: 3}
    - time: 0.40000013
      value: {fileID: 21300000, guid: 9bf4a4606dc30c141a2d62b08b115c68, type: 3}
    - time: 0.4166668
      value: {fileID: 21300000, guid: 3cb0a42dca0cea24c86407065387b22b, type: 3}
    - time: 0.4333335
      value: {fileID: 21300000, guid: a81257587ed8e5344a2df3b2907a0c09, type: 3}
    - time: 0.45000017
      value: {fileID: 21300000, guid: b4cd8d276977b3f49b930c9872818552, type: 3}
    - time: 0.46666685
      value: {fileID: 21300000, guid: c5979ea4422c5d341983ff8c3b76785d, type: 3}
    - time: 0.48333353
      value: {fileID: 21300000, guid: 6212320f03e5a3f47b98a5d542d84a24, type: 3}
    - time: 0.5000002
      value: {fileID: 21300000, guid: b3ef81f6572ba164ea3f7b181fab0071, type: 3}
    - time: 0.5166668
      value: {fileID: 21300000, guid: 06686a126fc8abe40bc847fdff152dfc, type: 3}
    - time: 0.5333335
      value: {fileID: 21300000, guid: a021e270b489ea14b8df7bf7f0c56b4c, type: 3}
    - time: 0.55000013
      value: {fileID: 21300000, guid: 4d5c8e6eae14fa748ba25ad92e75cf82, type: 3}
    - time: 0.5666668
      value: {fileID: 21300000, guid: 43acf3f34e139f74aaa8b05f09f0378e, type: 3}
    - time: 0.58333343
      value: {fileID: 21300000, guid: 7cf0841ae0990c2468c450f520a6187a, type: 3}
    - time: 0.6000001
      value: {fileID: 21300000, guid: 20c53aa92b61703459389f4c2a848a49, type: 3}
    - time: 0.61666673
      value: {fileID: 21300000, guid: 128c9e362df0655418ac0e48ecc9f050, type: 3}
    - time: 0.6333334
      value: {fileID: 21300000, guid: f33f9bb872df8c44aab55a70cf114e49, type: 3}
    - time: 0.65000004
      value: {fileID: 21300000, guid: 588504528cd2db8468b5455c6369167f, type: 3}
    - time: 0.6666667
      value: {fileID: 21300000, guid: 70152cfc2b21ec449a13c40e2f9d9cb2, type: 3}
    - time: 0.68333334
      value: {fileID: 21300000, guid: 52dcd2b7160741c45aea39ad59c96e97, type: 3}
    - time: 0.7
      value: {fileID: 21300000, guid: 1840d2fd4bd4892409ba60380a121dca, type: 3}
    - time: 0.71666664
      value: {fileID: 21300000, guid: 485a90f27267e6e4c94fc066a7e31d94, type: 3}
    - time: 0.7333333
      value: {fileID: 21300000, guid: 2e524b4e520176c469ad2444e62ffba9, type: 3}
    - time: 0.74999994
      value: {fileID: 21300000, guid: 5f7396d797a16194ab70cfea82b7c9bc, type: 3}
    - time: 0.7666666
      value: {fileID: 21300000, guid: abe94a9469a24984c999c8921fc6f1e3, type: 3}
    - time: 0.78333324
      value: {fileID: 21300000, guid: b9d4c74c9c02d2d44af0286d58102217, type: 3}
    - time: 0.7999999
      value: {fileID: 21300000, guid: 3cb9b0297ecfc6e46a0297f4c8e28432, type: 3}
    - time: 0.81666654
      value: {fileID: 21300000, guid: 675531f60cdbfeb4b9c9581b2dc980db, type: 3}
    attribute: m_Sprite
    path: 
    classID: 212
    script: {fileID: 0}
  m_SampleRate: 60
  m_WrapMode: 0
  m_Bounds:
    m_Center: {x: 0, y: 0, z: 0}
    m_Extent: {x: 0, y: 0, z: 0}
  m_ClipBindingConstant:
    genericBindings:
    - serializedVersion: 2
      path: 0
      attribute: 0
      script: {fileID: 0}
      typeID: 212
      customType: 23
      isPPtrCurve: 1
    pptrCurveMapping:
    - {fileID: 21300000, guid: 27929b85a46c24a4a82530f8b25fdd7a, type: 3}
    - {fileID: 21300000, guid: 3410398a53394fb468ee898ec042b998, type: 3}
    - {fileID: 21300000, guid: 343f47714a314904195aed3a3e8738d2, type: 3}
    - {fileID: 21300000, guid: 887ecdc65252fe143b5b974f72e19e29, type: 3}
    - {fileID: 21300000, guid: 79c835fbff308af49a577a907b463cdc, type: 3}
    - {fileID: 21300000, guid: 77d96a051cdd5404198f8402bdd20486, type: 3}
    - {fileID: 21300000, guid: bae4cbd198885614fb57d108c5e64cf6, type: 3}
    - {fileID: 21300000, guid: e8079457802884946ab4e31ebd1581e1, type: 3}
    - {fileID: 21300000, guid: d038646c67f00264db4bbc5306590cb8, type: 3}
    - {fileID: 21300000, guid: dd770a10bc4ee8a4d93db5b6a3441aca, type: 3}
    - {fileID: 21300000, guid: 8c6e5d0a06fc0aa4e83c906aaf781e28, type: 3}
    - {fileID: 21300000, guid: a99e601e88dac9e469ab205be3deaf91, type: 3}
    - {fileID: 21300000, guid: 5f88b333ef6139a47a716fa429ce4b77, type: 3}
    - {fileID: 21300000, guid: 40f486c06f046ae4eb85531a7c457f9e, type: 3}
    - {fileID: 21300000, guid: 7229b5fd100bad44baa1b9e89ad4be0c, type: 3}
    - {fileID: 21300000, guid: e7574351d6b0cb8459a2ef0a3388396d, type: 3}
    - {fileID: 21300000, guid: a4b26c81d593d004fa25c6b27210ce02, type: 3}
    - {fileID: 21300000, guid: 121dd6acb0c4e7649b10f1d746041da3, type: 3}
    - {fileID: 21300000, guid: f551af0726fd1e546bb513ae49b54df0, type: 3}
    - {fileID: 21300000, guid: 101e5812730455f41883c031bed8ded8, type: 3}
    - {fileID: 21300000, guid: 46d9c36338dbacd4192d7444e6c67f25, type: 3}
    - {fileID: 21300000, guid: dacd274571633ff46ac23bcab73ce75a, type: 3}
    - {fileID: 21300000, guid: 5079ebaf1c6ca8e43acb5ce89a03e3ac, type: 3}
    - {fileID: 21300000, guid: bb6395d1983c2ec4a8bdd4139a8628fa, type: 3}
    - {fileID: 21300000, guid: 9bf4a4606dc30c141a2d62b08b115c68, type: 3}
    - {fileID: 21300000, guid: 3cb0a42dca0cea24c86407065387b22b, type: 3}
    - {fileID: 21300000, guid: a81257587ed8e5344a2df3b2907a0c09, type: 3}
    - {fileID: 21300000, guid: b4cd8d276977b3f49b930c9872818552, type: 3}
    - {fileID: 21300000, guid: c5979ea4422c5d341983ff8c3b76785d, type: 3}
    - {fileID: 21300000, guid: 6212320f03e5a3f47b98a5d542d84a24, type: 3}
    - {fileID: 21300000, guid: b3ef81f6572ba164ea3f7b181fab0071, type: 3}
    - {fileID: 21300000, guid: 06686a126fc8abe40bc847fdff152dfc, type: 3}
    - {fileID: 21300000, guid: a021e270b489ea14b8df7bf7f0c56b4c, type: 3}
    - {fileID: 21300000, guid: 4d5c8e6eae14fa748ba25ad92e75cf82, type: 3}
    - {fileID: 21300000, guid: 43acf3f34e139f74aaa8b05f09f0378e, type: 3}
    - {fileID: 21300000, guid: 7cf0841ae0990c2468c450f520a6187a, type: 3}
    - {fileID: 21300000, guid: 20c53aa92b61703459389f4c2a848a49, type: 3}
    - {fileID: 21300000, guid: 128c9e362df0655418ac0e48ecc9f050, type: 3}
    - {fileID: 21300000, guid: f33f9bb872df8c44aab55a70cf114e49, type: 3}
    - {fileID: 21300000, guid: 588504528cd2db8468b5455c6369167f, type: 3}
    - {fileID: 21300000, guid: 70152cfc2b21ec449a13c40e2f9d9cb2, type: 3}
    - {fileID: 21300000, guid: 52dcd2b7160741c45aea39ad59c96e97, type: 3}
    - {fileID: 21300000, guid: 1840d2fd4bd4892409ba60380a121dca, type: 3}
    - {fileID: 21300000, guid: 485a90f27267e6e4c94fc066a7e31d94, type: 3}
    - {fileID: 21300000, guid: 2e524b4e520176c469ad2444e62ffba9, type: 3}
    - {fileID: 21300000, guid: 5f7396d797a16194ab70cfea82b7c9bc, type: 3}
    - {fileID: 21300000, guid: abe94a9469a24984c999c8921fc6f1e3, type: 3}
    - {fileID: 21300000, guid: b9d4c74c9c02d2d44af0286d58102217, type: 3}
    - {fileID: 21300000, guid: 3cb9b0297ecfc6e46a0297f4c8e28432, type: 3}
    - {fileID: 21300000, guid: 675531f60cdbfeb4b9c9581b2dc980db, type: 3}
  m_AnimationClipSettings:
    serializedVersion: 2
    m_AdditiveReferencePoseClip: {fileID: 0}
    m_AdditiveReferencePoseTime: 0
    m_StartTime: 0
    m_StopTime: 0.8333332
    m_OrientationOffsetY: 0
    m_Level: 0
    m_CycleOffset: 0
    m_HasAdditiveReferencePose: 0
    m_LoopTime: 1
    m_LoopBlend: 0
    m_LoopBlendOrientation: 0
    m_LoopBlendPositionY: 0
    m_LoopBlendPositionXZ: 0
    m_KeepOriginalOrientation: 0
    m_KeepOriginalPositionY: 1
    m_KeepOriginalPositionXZ: 0
    m_HeightFromFeet: 0
    m_Mirror: 0
  m_EditorCurves: []
  m_EulerEditorCurves: []
  m_HasGenericRootTransform: 0
  m_HasMotionFloatCurves: 0
  m_GenerateMotionCurves: 0
  m_Events: []
